Predicting Housing Prices - Data Analysis Project
…
Other possible things we could do is to fill in the missing total_bedrooms data with the median value of total_bedrooms grouped by total_rooms, since there is a relationship.

housing_data %>% 
  group_by(total_rooms) %>% 
  summarize(median.total_bedrooms = median(total_bedrooms, na.rm = TRUE))

## # A tibble: 5,926 x 2
##    total_rooms median.total_bedrooms
##          <dbl>                 <dbl>
##  1           2                   2  
##  2           6                   2  
##  3           8                   1  
##  4          11                  11  
##  5          12                   4  
##  6          15                   4  
##  7          16                   4  
##  8          18                   3.5
##  9          19                  12  
## 10          20                   4.5
## #  with 5,916 more rows
…
